<svg width="0" height="0" class="hidden">
  <symbol xmlns="http://www.w3.org/2000/svg" viewBox="0 0 161.409 186.432" id="getting-started-a">
    <g transform="translate(40.704 16.611)" stroke="#000" stroke-miterlimit="10">
      <path d="M79.223 90.417l-15.52-26.894V7.667a3.421 3.421 0 0 0 3.225-3.468v-.73A3.506 3.506 0 0 0 63.46.001H41.621a3.506 3.506 0 0 0-3.468 3.468v.73a3.508 3.508 0 0 0 3.225 3.468v55.857L25.861 90.417l-25.738 44.6a1.036 1.036 0 0 0 .913 1.521h103.073a1.036 1.036 0 0 0 .913-1.521z"
        fill="#fff" stroke-linecap="round" stroke-width="2.319" stroke-dasharray="100 2 50 10"></path>
      <path d="M75.025 93.394a6.124 6.124 0 0 1-3.772.243 17.015 17.015 0 0 1-2.495-.791 10.748 10.748 0 0 0-2.556-.913c-1.886-.243-3.712.791-5.354 1.521a11.156 11.156 0 0 1-5.415 1.156 7.566 7.566 0 0 1-3.833-1.7 14.683 14.683 0 0 0-4.016-2.312 5.943 5.943 0 0 0-2.738-.243 9.6 9.6 0 0 0-2.251.669 10.848 10.848 0 0 1-4.563 1.217c-1.643-.061-3.164-.913-4.807-1.217a4.609 4.609 0 0 0-1.825 0L8.459 130.758a.533.533 0 0 0 .426.791h87.192a.533.533 0 0 0 .426-.791z"
        fill="#dab9d9" stroke-width="2.319"></path>
      <circle cx="2.251" cy="2.251" r="2.251" transform="translate(37.361 107.515)" fill="#fff" stroke-width="2"></circle>
      <circle cx="1.399" cy="1.399" r="1.399" transform="translate(39.004 116.033)" fill="#fff" stroke-width="2"></circle>
      <circle cx="3.529" cy="3.529" r="3.529" transform="translate(44.845 109.645)" fill="#fff" stroke-width="2"></circle>
      <circle cx="3.529" cy="3.529" r="3.529" transform="translate(54.276 83.785)" fill="#dab9d9" stroke-width="2"></circle>
      <circle cx="3.529" cy="3.529" r="3.529" transform="translate(38.7 80.438)" fill="#dab9d9" stroke-width="2"></circle>
      <circle cx="1.765" cy="1.765" r="1.765" transform="translate(46.61 68.269)" fill="#dab9d9" stroke-width="2"></circle>
    </g>
    <path fill="none" stroke="#000" stroke-miterlimit="10" stroke-width="3" d="M24.764 0v178.887m-10.1-141.284h110.801"></path>
    <path d="M0 178.887h161.409v7.545H0z"></path>
  </symbol>
  <symbol xmlns="http://www.w3.org/2000/svg" viewBox="0 0 159.242 227.485" id="getting-started-b">
    <g transform="translate(15.945 1.267)">
      <path d="M81.42 69.292V11.57a5.891 5.891 0 0 0 5.319-5.808 5.871 5.871 0 0 0-5.87-5.87h-33.57a5.871 5.871 0 0 0-5.87 5.87 5.8 5.8 0 0 0 5.319 5.809v57.78a63.947 63.947 0 0 0-19.26 114.033h73.131A64.008 64.008 0 0 0 81.42 69.292z" fill="#fff"></path>
      <path d="M117.063 109.097a10.415 10.415 0 0 0-4.381-5.172 16.04 16.04 0 0 1-4.746-4.746c-1.765-2.495-3.651-5.415-6.876-6.145-4.077-.974-8.336 1.034-11.865 2.86-3.894 2.008-7.727 4.442-11.987 5.6a14.6 14.6 0 0 1-6.085.365 14.316 14.316 0 0 1-5.415-2.069c-2.738-1.7-4.929-4.32-8.032-5.415-4.2-1.521-8.579.852-12.047 2.981-3.347 2.069-6.632 4.868-10.709 5.111a14.5 14.5 0 0 1-6.936-1.582c-2.069-.974-4.259-2.069-6.632-2.008a8.84 8.84 0 0 0-4.624 1.886c-.669.426-1.278.913-1.947 1.4a10.581 10.581 0 0 0-3.407 4.077 57.308 57.308 0 0 0 14.542 67.783 10.726 10.726 0 0 0 6.936 2.556h61.333a10.726 10.726 0 0 0 6.936-2.556 57.639 57.639 0 0 0 19.958-43.566 54.667 54.667 0 0 0-4.016-21.36z"
        fill="#00c88c" stroke="#000" stroke-miterlimit="10" stroke-width="2.319"></path>
      <circle cx="4.468" cy="4.468" r="4.468" transform="translate(48.468 109.253)" fill="#b3ecd9" stroke="#000" stroke-miterlimit="10" stroke-width="2.319"></circle>
      <circle cx="1.095" cy="1.095" r="1.095" transform="translate(62.55 124.734)" fill="#80d9f1" stroke="#000" stroke-miterlimit="10" stroke-width="2.319"></circle>
      <circle cx="3.46" cy="3.46" r="3.46" transform="translate(52.944 123.465)" fill="#b3ecd9" stroke="#000" stroke-miterlimit="10" stroke-width="2.319"></circle>
      <circle cx="4.381" cy="4.381" r="4.381" transform="translate(60.359 60.42)" fill="#00cf97" stroke="#000" stroke-miterlimit="10" stroke-width="2.319"></circle>
      <circle cx="5.415" cy="5.415" r="5.415" transform="translate(63.706 19.471)" fill="#00cf97" stroke="#000" stroke-miterlimit="10" stroke-width="2.319"></circle>
      <circle cx="1.156" cy="1.156" r="1.156" transform="translate(38.516 84.819)" fill="#00cf97" stroke="#000" stroke-miterlimit="10" stroke-width="2.319"></circle>
      <g fill="none" stroke="#000" stroke-linecap="round" stroke-miterlimit="10" stroke-width="2.319">
        <path d="M107.773 84.209A64.07 64.07 0 0 0 81.42 69.351V11.57a5.851 5.851 0 0 0-.55-11.678H68.091"></path>
        <path stroke-dasharray="10.615 2.123" d="M67.846-.108h-7.093"></path>
        <path d="M60.081-.108H47.299a5.871 5.871 0 0 0-5.87 5.87 5.8 5.8 0 0 0 5.319 5.809v57.78a63.979 63.979 0 0 0-26.349 14.858"></path>
        <path d="M19.604 84.943a63.706 63.706 0 0 0-16.02 25.252" stroke-dasharray="44.91 8.982"></path>
        <path d="M2.728 112.825a63.168 63.168 0 0 0-2.568 18.1 63.844 63.844 0 0 0 27.392 52.461h73.128a63.93 63.93 0 0 0 9.11-97.218" stroke-dasharray="89.82 1.796 44.91 8.982"></path>
      </g>
    </g>
    <path d="M136.243 166.099c0 2.616-25.555 4.746-56.648 4.746s-56.652-2.13-56.652-4.746m12.899 2.981l-33.1 55.552M123.4 169.08l33.1 55.552m-76.909-53.787v54.64" fill="none" stroke="#000" stroke-linecap="round" stroke-miterlimit="10" stroke-width="4"></path>
  </symbol>
  <symbol xmlns="http://www.w3.org/2000/svg" viewBox="0 0 131.245 132.158" id="getting-started-c">
    <g transform="translate(19.592 13.082)" stroke="#000" stroke-miterlimit="10">
      <path d="M25.677 0H2.8A2.831 2.831 0 0 0 0 2.8a2.831 2.831 0 0 0 2.8 2.8v90.6a10.335 10.335 0 0 0 10.344 10.344h2.19A10.335 10.335 0 0 0 25.677 96.2V5.6a2.831 2.831 0 0 0 2.8-2.8 2.791 2.791 0 0 0-2.8-2.8z" fill="#fff" stroke-linecap="round" stroke-width="2.319"
        stroke-dasharray="100 2 50 10"></path>
      <path d="M20.992 37.116a3.56 3.56 0 0 1-1.034.608 2.475 2.475 0 0 1-1.156 0 5.614 5.614 0 0 0-1.947-.426 5.108 5.108 0 0 0-2.069 1.034c-1.217.791-2.616 1.643-4.077 1.156a5.617 5.617 0 0 1-1.521-.913 3.279 3.279 0 0 0-1.825-.608h-.244v58.23a6.037 6.037 0 0 0 6.024 6.024h2.19a6.038 6.038 0 0 0 6.024-6.024V36.873a1.273 1.273 0 0 0-.365.243z"
        fill="#118acb" stroke-width="2.319"></path>
      <circle cx="1.886" cy="1.886" r="1.886" transform="translate(12.352 51.354)" fill="#e0dfdf" stroke-width="2"></circle>
      <circle cx="1.886" cy="1.886" r="1.886" transform="translate(8.579 30.788)" fill="#118acb" stroke-width="2.319"></circle>
      <circle cx="3.833" cy="3.833" r="3.833" transform="translate(14.238 10.968)" fill="#118acb" stroke-width="2.319"></circle>
      <circle cx="1.521" cy="1.521" r="1.521" transform="translate(8.944 65.409)" fill="#e0dfdf" stroke-width="1.628"></circle>
    </g>
    <g transform="translate(80.986 13.082)" stroke="#000" stroke-miterlimit="10">
      <path d="M25.677 0H2.8A2.831 2.831 0 0 0 0 2.8a2.831 2.831 0 0 0 2.8 2.8v90.6a10.335 10.335 0 0 0 10.344 10.344h2.19A10.335 10.335 0 0 0 25.678 96.2V5.6a2.831 2.831 0 0 0 2.8-2.8A2.754 2.754 0 0 0 25.677 0z" fill="#fff" stroke-linecap="round" stroke-width="2.319"
        stroke-dasharray="100 2 50 10"></path>
      <path d="M21.053 37.116a3.559 3.559 0 0 1-1.034.608 2.475 2.475 0 0 1-1.156 0 5.614 5.614 0 0 0-1.947-.426 5.106 5.106 0 0 0-2.069 1.034c-1.217.791-2.616 1.643-4.077 1.156a5.616 5.616 0 0 1-1.521-.913 3.279 3.279 0 0 0-1.825-.608h-.243v58.23a6.038 6.038 0 0 0 6.024 6.024h2.19a6.037 6.037 0 0 0 6.024-6.024V36.873a1.274 1.274 0 0 0-.366.243z"
        fill="#118acb" stroke-width="2.319"></path>
      <circle cx="1.886" cy="1.886" r="1.886" transform="translate(8.64 63.523)" fill="#e0dfdf" stroke-width="2"></circle>
      <circle cx="1.886" cy="1.886" r="1.886" transform="translate(8.64 30.788)" fill="#118acb" stroke-width="2.319"></circle>
      <circle cx="3.833" cy="3.833" r="3.833" transform="translate(14.299 25.008)" fill="#118acb" stroke-width="2.319"></circle>
      <circle cx="1.521" cy="1.521" r="1.521" transform="translate(14.299 74.05)" fill="#e0dfdf" stroke-width="1.628"></circle>
    </g>
    <path d="M0 0h2.86v132.158H0zm128.385 0h2.86v132.158h-2.86z"></path>
    <path d="M0 128.081h131.245v4.077H0z"></path>
    <path fill="none" stroke="#000" stroke-miterlimit="10" stroke-width="2" d="M1.399 35.717h129.845"></path>
  </symbol>
</svg>
